[gd_scene load_steps=5 format=2]

[ext_resource path="res://Objects/Units/Turret/Cannon/Ball/explosion2.png" type="Texture" id=1]
[ext_resource path="res://Objects/Units/Turret/Cannon/Ball/BallExplosion.gd" type="Script" id=2]
[ext_resource path="res://Objects/Units/Turret/kaboom.ogg" type="AudioStream" id=3]

[sub_resource type="Gradient" id=6]
offsets = PoolRealArray( 0, 0.169118, 1 )
colors = PoolColorArray( 1, 1, 1, 0, 1, 1, 1, 1, 1, 1, 1, 0 )

[node name="BallExplosion" type="CPUParticles2D"]
z_index = 5
z_as_relative = false
emitting = false
amount = 4
lifetime = 0.3
one_shot = true
explosiveness = 0.5
texture = ExtResource( 1 )
emission_shape = 1
emission_sphere_radius = 4.0
gravity = Vector2( 0, 0 )
scale_amount = 0.2
color = Color( 1, 1, 1, 0.501961 )
color_ramp = SubResource( 6 )
script = ExtResource( 2 )

[node name="Timer" type="Timer" parent="."]

[node name="Kaboom" type="AudioStreamPlayer2D" parent="."]
stream = ExtResource( 3 )
volume_db = -20.0

[connection signal="timeout" from="Timer" to="." method="_on_Timer_timeout"]
