[gd_scene load_steps=3 format=2]

[ext_resource path="res://Level/Target.gd" type="Script" id=1]

[sub_resource type="CircleShape2D" id=1]

[node name="Target" type="Position2D" groups=["Target"]]
script = ExtResource( 1 )

[node name="CollisionShape2D" type="CollisionShape2D" parent="."]
visible = false
shape = SubResource( 1 )
