[gd_scene load_steps=2 format=2]

[ext_resource path="res://Wish/WishMenu/Sub/General/MenuGeneral.gd" type="Script" id=1]

[node name="WishMenuGeneral" type="Control"]
anchor_right = 1.0
anchor_bottom = 1.0
script = ExtResource( 1 )
__meta__ = {
"_edit_use_anchors_": false
}

[node name="Container" type="GridContainer" parent="."]
anchor_right = 1.0
anchor_bottom = 1.0
margin_left = 10.0
margin_top = 10.0
margin_right = -10.0
margin_bottom = -10.0
columns = 2
__meta__ = {
"_edit_use_anchors_": false
}

[node name="FactoryResetCheck" type="CheckBox" parent="Container"]
margin_right = 118.0
margin_bottom = 24.0
text = "Factory Reset:"
align = 2

[node name="FactoryResetButton" type="Button" parent="Container"]
margin_left = 122.0
margin_right = 215.0
margin_bottom = 20.0
size_flags_horizontal = 0
size_flags_vertical = 0
custom_colors/font_color_disabled = Color( 0.501961, 0.501961, 0.501961, 1 )
custom_colors/font_color_focus = Color( 1, 0, 0, 1 )
custom_colors/font_color = Color( 1, 0, 0, 1 )
custom_colors/font_color_hover = Color( 1, 0, 0, 1 )
custom_colors/font_color_pressed = Color( 1, 0, 0, 1 )
disabled = true
text = "RESET & EXIT"

[node name="Spacer1" type="Control" parent="Container"]
margin_top = 28.0
margin_right = 118.0
margin_bottom = 44.0
rect_min_size = Vector2( 0, 16 )

[node name="Spacer2" type="Control" parent="Container"]
margin_left = 122.0
margin_top = 28.0
margin_right = 217.0
margin_bottom = 44.0

[node name="LanguageLabel" type="Label" parent="Container"]
margin_top = 48.0
margin_right = 118.0
margin_bottom = 79.0
text = "Language
Sprache"
align = 2
valign = 1

[node name="LanguageOptions" type="OptionButton" parent="Container"]
margin_left = 122.0
margin_top = 53.0
margin_right = 217.0
margin_bottom = 73.0
size_flags_horizontal = 0
size_flags_vertical = 4
text = "Languages"

[connection signal="toggled" from="Container/FactoryResetCheck" to="." method="_on_FactoryResetCheck_toggled"]
[connection signal="pressed" from="Container/FactoryResetButton" to="." method="_on_FactoryResetButton_pressed"]
[connection signal="item_selected" from="Container/LanguageOptions" to="." method="_on_LanguageOptions_item_selected"]
