[gd_scene load_steps=3 format=2]

[ext_resource path="res://Objects/Tilesets/Decoration/Decoration.tres" type="TileSet" id=1]
[ext_resource path="res://Objects/Maps/MapBuildable.gd" type="Script" id=2]

[node name="MapBuildable" type="TileMap" groups=["MapBuildable"]]
tile_set = ExtResource( 1 )
cell_size = Vector2( 32, 32 )
format = 1
script = ExtResource( 2 )
