[gd_scene load_steps=2 format=2]

[ext_resource path="res://Objects/Tilesets/Decoration/Decoration.tres" type="TileSet" id=1]

[node name="MapDecoration" type="TileMap" groups=["MapDecoration"]]
tile_set = ExtResource( 1 )
cell_size = Vector2( 32, 32 )
format = 1
