[gd_scene load_steps=8 format=2]

[ext_resource path="res://Level/LevelTemplate.tscn" type="PackedScene" id=1]
[ext_resource path="res://Level/Levels/Level4/2.tres" type="Resource" id=2]
[ext_resource path="res://Level/Levels/Level4/3.tres" type="Resource" id=3]
[ext_resource path="res://Level/Levels/Level4/3b.tres" type="Resource" id=4]
[ext_resource path="res://Level/Levels/Level4/1.tres" type="Resource" id=5]
[ext_resource path="res://Level/Levels/Level4/4.tres" type="Resource" id=6]
[ext_resource path="res://Level/Levels/Level4/2b.tres" type="Resource" id=7]

[node name="Level4" instance=ExtResource( 1 )]

[node name="Overlay" parent="." index="0"]
gold = 250

[node name="MapSand" parent="." index="3"]
tile_data = PoolIntArray( 262160, 4, 0, 262161, 4, 0, 262162, 4, 0, 262163, 4, 0, 262164, 4, 0, 262167, 4, 0, 262168, 4, 0, 327694, 4, 0, 327695, 4, 0, 327696, 4, 0, 327697, 4, 0, 327698, 4, 0, 327699, 4, 0, 327700, 4, 0, 327701, 4, 0, 327702, 4, 0, 327703, 4, 0, 327704, 4, 0, 327705, 4, 0, 327706, 4, 0, 393229, 4, 0, 393230, 4, 0, 393241, 4, 0, 393242, 4, 0, 458764, 4, 0, 458765, 4, 0, 458778, 4, 0, 458779, 4, 0, 458780, 4, 0, 524300, 4, 0, 524305, 4, 0, 524306, 4, 0, 524309, 4, 0, 524310, 4, 0, 524315, 4, 0, 524316, 4, 0, 589835, 4, 0, 589836, 4, 0, 589841, 0, 0, 589842, 0, 4, 589845, 0, 65541, 589846, 0, 1, 589852, 4, 0, 589853, 4, 0, 655371, 4, 0, 655376, 0, 6, 655377, 0, 262147, 655382, 0, 262146, 655383, 0, 7, 655389, 4, 0, 655390, 4, 0, 720907, 4, 0, 720911, 4, 0, 720912, 0, 131076, 720913, 0, 131077, 720918, 0, 131076, 720919, 0, 131077, 720920, 4, 0, 720926, 4, 0, 786442, 4, 0, 786443, 4, 0, 786447, 4, 0, 786448, 0, 131076, 786449, 0, 196608, 786450, 0, 196612, 786451, 0, 196612, 786452, 0, 196612, 786453, 0, 196612, 786454, 0, 196609, 786455, 0, 131077, 786456, 4, 0, 786462, 4, 0, 851978, 4, 0, 851984, 0, 65542, 851985, 0, 131073, 851986, 0, 131078, 851987, 0, 131078, 851988, 0, 131078, 851989, 0, 131078, 851990, 0, 131072, 851991, 0, 65543, 851998, 4, 0, 917514, 4, 0, 917521, 0, 65542, 917522, 0, 196613, 917523, 0, 196613, 917524, 0, 196613, 917525, 0, 196613, 917526, 0, 65543, 917534, 4, 0, 983049, 4, 0, 983050, 4, 0, 983054, 4, 0, 983055, 4, 0, 983070, 4, 0, 1048585, 4, 0, 1048586, 4, 0, 1048591, 4, 0, 1048592, 4, 0, 1048597, 4, 0, 1048598, 4, 0, 1048599, 4, 0, 1048600, 4, 0, 1048605, 4, 0, 1048606, 4, 0, 1114122, 4, 0, 1114128, 4, 0, 1114129, 4, 0, 1114130, 4, 0, 1114131, 4, 0, 1114132, 4, 0, 1114133, 4, 0, 1114139, 4, 0, 1114140, 4, 0, 1114141, 4, 0, 1179659, 4, 0, 1179674, 4, 0, 1179675, 4, 0, 1245196, 4, 0, 1245197, 4, 0, 1245198, 4, 0, 1245209, 4, 0, 1245210, 4, 0, 1310734, 4, 0, 1310735, 4, 0, 1310736, 4, 0, 1310742, 4, 0, 1310743, 4, 0, 1310744, 4, 0 )

[node name="MapDecorationLayer0" parent="." index="4"]
tile_data = PoolIntArray( 720913, 0, 65540, 720918, 0, 65540, 786448, 0, 65541, 786449, 0, 262144, 786450, 0, 196612, 786451, 0, 196612, 786452, 0, 196612, 786453, 0, 196612, 786454, 0, 262147, 851985, 0, 65542, 851986, 0, 131073, 851987, 0, 131078, 851988, 0, 131078, 851989, 0, 131078, 851990, 0, 131077, 917522, 0, 65542, 917523, 0, 196613, 917524, 0, 196613, 917525, 0, 196613, 917526, 0, 65543 )

[node name="MapDecorationLayer1" parent="." index="5"]
tile_data = PoolIntArray( 720913, 3, 131074, 786450, 3, 5, 786451, 3, 65540, 786452, 1, 131076, 786454, 1, 131076, 851985, 1, 131074, 851986, 1, 65537, 851987, 2, 3, 851988, 1, 65540, 851989, 1, 1, 851990, 1, 131073, 917522, 1, 131072, 917523, 1, 1, 917524, 1, 131073, 917525, 3, 3, 917526, 3, 65537 )

[node name="MapDecorationLayer2" parent="." index="6"]
tile_data = PoolIntArray( 720916, 19, 0, 720918, 5, 0, 786449, 6, 0 )

[node name="Spawner" parent="." index="8"]
points = PoolVector2Array( -496, -478, 922, -499 )
patterns = [ ExtResource( 5 ), ExtResource( 2 ), ExtResource( 7 ), ExtResource( 3 ), ExtResource( 4 ), ExtResource( 6 ) ]

[node name="Target" parent="." index="9"]
position = Vector2( 656, 376 )
