[gd_scene load_steps=8 format=2]

[ext_resource path="res://Objects/Maps/Decoration/Splash/Splash.gd" type="Script" id=1]
[ext_resource path="res://Objects/Units/Turret/Cannon/Ball/Smoke.png" type="Texture" id=2]
[ext_resource path="res://Objects/Maps/Decoration/Splash/Water.png" type="Texture" id=3]
[ext_resource path="res://Objects/Units/Turret/splash.ogg" type="AudioStream" id=4]

[sub_resource type="CanvasItemMaterial" id=1]
blend_mode = 1

[sub_resource type="Gradient" id=2]
offsets = PoolRealArray( 0, 0.198895, 0.436464, 0.60221, 0.734807, 1 )
colors = PoolColorArray( 1, 1, 1, 1, 1, 1, 1, 0.501961, 1, 1, 1, 1, 1, 1, 1, 0.490196, 1, 1, 1, 1, 1, 1, 1, 0 )

[sub_resource type="CanvasItemMaterial" id=3]
blend_mode = 1

[node name="Splash" type="CPUParticles2D"]
material = SubResource( 1 )
emitting = false
amount = 64
one_shot = true
explosiveness = 0.9
lifetime_randomness = 0.1
texture = ExtResource( 3 )
flag_align_y = true
spread = 180.0
gravity = Vector2( 0, 0 )
initial_velocity = 20.0
scale_amount = 2.0
color = Color( 1, 1, 1, 0.0431373 )
color_ramp = SubResource( 2 )
script = ExtResource( 1 )

[node name="Splash2" type="CPUParticles2D" parent="."]
material = SubResource( 3 )
z_index = 10
emitting = false
amount = 32
one_shot = true
explosiveness = 0.8
lifetime_randomness = 0.1
texture = ExtResource( 2 )
direction = Vector2( 0, -1 )
spread = 15.0
initial_velocity = 50.0
initial_velocity_random = 0.25
angle = 720.0
angle_random = 1.0
scale_amount = 0.5
color = Color( 1, 1, 1, 0.258824 )

[node name="Audio" type="AudioStreamPlayer2D" parent="."]
stream = ExtResource( 4 )
volume_db = -20.0
