[gd_resource type="Resource" load_steps=2 format=2]

[ext_resource path="res://Level/SpawnPatterns/SpawnPattern.gd" type="Script" id=1]

[resource]
script = ExtResource( 1 )
ships = [  ]
wait_time = 2.0
dialog_at_win = "Level1_1"
dialog_at_fail = "Fail"
tech_level_inc = false
add_money = 0
