[gd_resource type="Resource" load_steps=6 format=2]

[ext_resource path="res://Level/SpawnPatterns/SpawnPattern.gd" type="Script" id=1]
[ext_resource path="res://Objects/Units/Ships/ShipNormal.tscn" type="PackedScene" id=2]
[ext_resource path="res://Objects/Units/Ships/ShipPirate.tscn" type="PackedScene" id=3]
[ext_resource path="res://Objects/Units/Ships/ShipStrong.tscn" type="PackedScene" id=4]
[ext_resource path="res://Objects/Units/Ships/ShipFast.tscn" type="PackedScene" id=5]

[resource]
script = ExtResource( 1 )
ships = [ ExtResource( 2 ), ExtResource( 2 ), ExtResource( 2 ), ExtResource( 2 ), ExtResource( 2 ), ExtResource( 5 ), ExtResource( 4 ), ExtResource( 4 ), ExtResource( 5 ), ExtResource( 3 ) ]
wait_time = 3.0
dialog_at_win = ""
dialog_at_fail = "Fail"
tech_level_inc = false
add_money = 100
