[gd_scene load_steps=7 format=2]

[ext_resource path="res://Level/Levels/Level1/2.tres" type="Resource" id=1]
[ext_resource path="res://Level/Levels/Level1/4.tres" type="Resource" id=2]
[ext_resource path="res://Level/LevelTemplate.tscn" type="PackedScene" id=3]
[ext_resource path="res://Level/Levels/Level1/1.tres" type="Resource" id=4]
[ext_resource path="res://Level/Levels/Level1/3.tres" type="Resource" id=5]
[ext_resource path="res://Level/Levels/Level1/0.tres" type="Resource" id=6]

[node name="Level1" instance=ExtResource( 3 )]

[node name="Overlay" parent="." index="0"]
gold = 300

[node name="MapSand" parent="." index="3"]
tile_data = PoolIntArray( 65563, 4, 0, 131087, 4, 0, 131088, 4, 0, 131089, 4, 0, 131091, 0, 6, 131092, 0, 196612, 131093, 0, 196612, 131094, 0, 196612, 131095, 0, 196612, 131096, 0, 196612, 131097, 0, 196612, 131098, 0, 7, 131099, 4, 0, 196621, 0, 6, 196622, 0, 196612, 196623, 0, 196612, 196624, 0, 196612, 196625, 0, 196612, 196626, 0, 196612, 196627, 0, 196609, 196628, 0, 131078, 196629, 0, 131078, 196630, 0, 131078, 196631, 0, 131078, 196632, 0, 131078, 196633, 0, 131078, 196634, 0, 196608, 196635, 0, 196612, 196636, 0, 196612, 196637, 0, 196612, 196638, 0, 196612, 196639, 0, 7, 196640, 4, 0, 262151, 4, 0, 262152, 4, 0, 262153, 4, 0, 262156, 0, 6, 262157, 0, 196609, 262158, 0, 131078, 262159, 0, 131078, 262160, 0, 131078, 262161, 0, 131078, 262162, 0, 131078, 262163, 0, 131078, 262164, 0, 131078, 262165, 0, 131078, 262166, 0, 131078, 262167, 0, 131078, 262168, 0, 131078, 262169, 0, 131078, 262170, 0, 131078, 262171, 0, 131078, 262172, 0, 131078, 262173, 0, 131078, 262174, 0, 131078, 262175, 0, 196608, 262176, 0, 7, 327687, 4, 0, 327688, 4, 0, 327689, 4, 0, 327692, 0, 65542, 327693, 0, 131073, 327694, 0, 131078, 327695, 0, 131078, 327696, 0, 131078, 327697, 0, 131078, 327698, 0, 131078, 327699, 0, 131078, 327700, 0, 131078, 327701, 0, 131078, 327702, 0, 131078, 327703, 0, 131078, 327704, 0, 131078, 327705, 0, 131078, 327706, 0, 131078, 327707, 0, 131078, 327708, 0, 131078, 327709, 0, 131078, 327710, 0, 131078, 327711, 0, 131072, 327712, 0, 65543, 393229, 0, 65542, 393230, 0, 196613, 393231, 0, 196613, 393232, 0, 196613, 393233, 0, 196613, 393234, 0, 196613, 393235, 0, 131073, 393236, 0, 131078, 393237, 0, 131078, 393238, 0, 131078, 393239, 0, 131078, 393240, 0, 131078, 393241, 0, 131078, 393242, 0, 131078, 393243, 0, 131078, 393244, 0, 131078, 393245, 0, 131078, 393246, 0, 131072, 393247, 0, 65543, 458765, 4, 0, 458766, 4, 0, 458767, 4, 0, 458771, 0, 131076, 458772, 0, 131078, 458773, 0, 131078, 458774, 0, 131078, 458775, 0, 131078, 458776, 0, 131078, 458777, 0, 131078, 458778, 0, 131078, 458779, 0, 131078, 458780, 0, 131072, 458781, 0, 196613, 458782, 0, 65543, 458783, 4, 0, 524307, 0, 65542, 524308, 0, 131073, 524309, 0, 131078, 524310, 0, 131078, 524311, 0, 131078, 524312, 0, 131078, 524313, 0, 131078, 524314, 0, 131072, 524315, 0, 196613, 524316, 0, 65543, 589830, 4, 0, 589831, 4, 0, 589844, 0, 131076, 589845, 0, 131078, 589846, 0, 131078, 589847, 0, 131078, 589848, 0, 131078, 589849, 0, 131072, 589850, 0, 65543, 589851, 4, 0, 589852, 4, 0, 589859, 4, 0, 589860, 4, 0, 655365, 4, 0, 655366, 4, 0, 655367, 4, 0, 655368, 4, 0, 655373, 4, 0, 655374, 4, 0, 655375, 4, 0, 655376, 4, 0, 655377, 0, 6, 655378, 0, 196612, 655379, 0, 196612, 655380, 0, 196609, 655381, 0, 131078, 655382, 0, 131078, 655383, 0, 131072, 655384, 0, 196613, 655385, 0, 65543, 655387, 4, 0, 655388, 4, 0, 655395, 4, 0, 655396, 4, 0, 720902, 4, 0, 720903, 4, 0, 720904, 4, 0, 720912, 4, 0, 720913, 0, 65542, 720914, 0, 196613, 720915, 0, 196613, 720916, 0, 196613, 720917, 0, 196613, 720918, 0, 196613, 720919, 0, 65543, 720920, 4, 0, 720927, 4, 0, 720928, 4, 0, 786448, 4, 0, 786449, 4, 0, 786450, 4, 0, 786451, 4, 0, 786452, 4, 0, 786453, 4, 0, 786462, 4, 0, 851978, 4, 0, 851979, 4, 0, 851980, 4, 0, 851981, 4, 0, 851985, 4, 0, 851986, 4, 0, 851987, 4, 0, 851988, 4, 0, 851989, 4, 0, 917515, 4, 0, 917516, 4, 0, 917525, 4, 0, 917526, 4, 0, 917527, 4, 0, 917538, 4, 0, 983051, 4, 0, 983052, 4, 0, 983063, 4, 0, 983064, 4, 0, 983070, 4, 0, 983071, 4, 0, 983072, 4, 0, 983073, 4, 0, 983074, 4, 0, 1048587, 4, 0, 1048588, 4, 0, 1048589, 4, 0, 1048593, 4, 0, 1048605, 4, 0, 1048606, 4, 0, 1048607, 4, 2, 1048608, 4, 1, 1048609, 4, 1, 1048610, 4, 0, 1114122, 4, 0, 1114123, 4, 0, 1114124, 4, 0, 1114125, 4, 0, 1114126, 4, 0, 1114129, 4, 0, 1114133, 4, 0, 1114142, 4, 0, 1114143, 4, 0, 1114144, 4, 0, 1114145, 4, 0, 1114146, 4, 0, 1179659, 4, 0, 1179660, 4, 0, 1179661, 4, 0, 1179665, 4, 0, 1179668, 4, 0, 1179669, 4, 0, 1179670, 4, 0, 1245205, 4, 0, 1245206, 4, 0, 1245207, 4, 0 )

[node name="MapDecorationLayer0" parent="." index="4"]
tile_data = PoolIntArray( 196628, 0, 6, 196629, 0, 196612, 196630, 0, 196612, 196631, 0, 196612, 196632, 0, 196612, 196633, 0, 7, 262161, 0, 6, 262162, 0, 196612, 262163, 0, 196612, 262164, 0, 196609, 262165, 0, 131078, 262166, 0, 131078, 262167, 0, 131078, 262168, 0, 131078, 262169, 0, 196608, 262170, 0, 196612, 262171, 0, 196612, 262172, 0, 196612, 262173, 0, 7, 327696, 0, 65541, 327697, 0, 327684, 327698, 0, 196613, 327699, 0, 196613, 327700, 0, 131073, 327701, 0, 131078, 327702, 0, 131078, 327703, 0, 131078, 327704, 0, 131078, 327705, 0, 131078, 327706, 0, 131078, 327707, 0, 131078, 327708, 0, 131072, 327709, 0, 65543, 393236, 0, 131076, 393237, 0, 131078, 393238, 0, 131078, 393239, 0, 131078, 393240, 0, 131078, 393241, 0, 131078, 393242, 0, 131072, 393243, 0, 196613, 393244, 0, 65543, 458771, 0, 6, 458772, 0, 196609, 458773, 0, 131078, 458774, 0, 131078, 458775, 0, 131078, 458776, 0, 131078, 458777, 0, 131072, 458778, 0, 65543, 524307, 0, 65542, 524308, 0, 131073, 524309, 0, 131078, 524310, 0, 131078, 524311, 0, 131078, 524312, 0, 131072, 524313, 0, 65543, 589844, 0, 65542, 589845, 0, 131073, 589846, 0, 131072, 589847, 0, 196613, 589848, 0, 65543, 655381, 0, 65542, 655382, 0, 65543 )

[node name="MapDecorationLayer1" parent="." index="5"]
tile_data = PoolIntArray( 196631, 3, 65539, 262164, 3, 4, 262165, 2, 3, 262166, 1, 131076, 262167, 2, 196611, 262168, 2, 2, 327696, 3, 65537, 327699, 3, 4, 327701, 2, 131074, 327702, 1, 65540, 327703, 1, 1, 327704, 1, 1, 327705, 1, 1, 327706, 1, 1, 327707, 1, 65538, 393237, 2, 2, 393238, 1, 0, 393239, 2, 65536, 393240, 2, 131075, 393241, 2, 196611, 393242, 3, 65538, 458772, 1, 131076, 458773, 2, 196609, 458774, 1, 0, 458775, 2, 65538, 458776, 2, 65539, 458777, 3, 5, 524307, 1, 131074, 524308, 1, 65539, 524309, 2, 196609, 524310, 1, 0, 589844, 1, 131072, 589845, 1, 1, 589846, 1, 4, 589847, 1, 65538, 589848, 3, 65540, 655381, 3, 65540 )

[node name="MapDecorationLayer2" parent="." index="6"]
tile_data = PoolIntArray( 196630, 6, 0, 262169, 7, 0, 262171, 7, 0, 393236, 5, 0, 524306, 18, 0, 524311, 8, 0 )

[node name="Spawner" parent="." index="8"]
points = PoolVector2Array( 601, 779, 1220, 151 )
patterns = [ ExtResource( 6 ), ExtResource( 4 ), ExtResource( 1 ), ExtResource( 5 ), ExtResource( 2 ) ]

[node name="Target" parent="." index="9"]
position = Vector2( 596, 272 )
