[gd_scene load_steps=4 format=2]

[ext_resource path="res://Objects/BuildMenu/BuildButton.tscn" type="PackedScene" id=1]
[ext_resource path="res://Objects/BuildMenu/BuildMenuTemplate.tscn" type="PackedScene" id=2]
[ext_resource path="res://Objects/BuildMenu/BuildMenuTower.gd" type="Script" id=3]

[node name="BuildMenuTower" instance=ExtResource( 2 )]
margin_right = -1080.0
margin_bottom = -570.0
rect_min_size = Vector2( 200, 150 )
script = ExtResource( 3 )

[node name="Tower" parent="ButtonContainer" index="0" instance=ExtResource( 1 )]
margin_right = 192.0
margin_bottom = 142.0
