[gd_resource type="TileSet" load_steps=4 format=2]

[ext_resource path="res://Objects/Tilesets/Decoration/Decoration.png" type="Texture" id=1]
[ext_resource path="res://Objects/Tilesets/Decoration/Grass.png" type="Texture" id=2]
[ext_resource path="res://Objects/Tilesets/Decoration/port.png" type="Texture" id=3]

[resource]
0/name = "Grass"
0/texture = ExtResource( 2 )
0/tex_offset = Vector2( 0, 0 )
0/modulate = Color( 1, 1, 1, 1 )
0/region = Rect2( 0, 0, 256, 192 )
0/tile_mode = 1
0/autotile/bitmask_mode = 1
0/autotile/bitmask_flags = [ Vector2( 0, 0 ), 176, Vector2( 0, 1 ), 50, Vector2( 0, 2 ), 255, Vector2( 0, 3 ), 507, Vector2( 0, 4 ), 442, Vector2( 0, 5 ), 190, Vector2( 1, 0 ), 152, Vector2( 1, 1 ), 26, Vector2( 1, 2 ), 447, Vector2( 1, 3 ), 510, Vector2( 1, 4 ), 250, Vector2( 1, 5 ), 187, Vector2( 2, 0 ), 184, Vector2( 2, 1 ), 178, Vector2( 2, 2 ), 191, Vector2( 2, 3 ), 251, Vector2( 2, 4 ), 434, Vector2( 2, 5 ), 182, Vector2( 3, 0 ), 58, Vector2( 3, 1 ), 154, Vector2( 3, 2 ), 506, Vector2( 3, 3 ), 446, Vector2( 3, 4 ), 218, Vector2( 3, 5 ), 155, Vector2( 4, 0 ), 24, Vector2( 4, 1 ), 144, Vector2( 4, 2 ), 438, Vector2( 4, 3 ), 504, Vector2( 4, 4 ), 440, Vector2( 4, 5 ), 62, Vector2( 5, 0 ), 18, Vector2( 5, 1 ), 48, Vector2( 5, 2 ), 219, Vector2( 5, 3 ), 63, Vector2( 5, 4 ), 248, Vector2( 5, 5 ), 59, Vector2( 6, 0 ), 432, Vector2( 6, 1 ), 54, Vector2( 6, 2 ), 511, Vector2( 6, 3 ), 16, Vector2( 6, 4 ), 443, Vector2( 6, 5 ), 254, Vector2( 7, 0 ), 216, Vector2( 7, 1 ), 27, Vector2( 7, 2 ), 56, Vector2( 7, 3 ), 146, Vector2( 7, 4 ), 186 ]
0/autotile/icon_coordinate = Vector2( 6, 3 )
0/autotile/tile_size = Vector2( 32, 32 )
0/autotile/spacing = 0
0/autotile/occluder_map = [  ]
0/autotile/navpoly_map = [  ]
0/autotile/priority_map = [  ]
0/autotile/z_index_map = [  ]
0/occluder_offset = Vector2( 0, 0 )
0/navigation_offset = Vector2( 0, 0 )
0/shape_offset = Vector2( 0, 0 )
0/shape_transform = Transform2D( 1, 0, 0, 1, 0, 0 )
0/shape_one_way = false
0/shape_one_way_margin = 0.0
0/shapes = [  ]
0/z_index = 0
1/name = "Decoration.png 1"
1/texture = ExtResource( 1 )
1/tex_offset = Vector2( 0, 0 )
1/modulate = Color( 1, 1, 1, 1 )
1/region = Rect2( 0, 0, 160, 96 )
1/tile_mode = 1
1/autotile/bitmask_mode = 1
1/autotile/bitmask_flags = [ Vector2( 0, 0 ), 146, Vector2( 0, 1 ), 176, Vector2( 0, 2 ), 50, Vector2( 1, 0 ), 56, Vector2( 1, 1 ), 152, Vector2( 1, 2 ), 26, Vector2( 2, 0 ), 186, Vector2( 2, 1 ), 24, Vector2( 2, 2 ), 48, Vector2( 3, 0 ), 184, Vector2( 3, 1 ), 154, Vector2( 3, 2 ), 18, Vector2( 4, 0 ), 58, Vector2( 4, 1 ), 178, Vector2( 4, 2 ), 144 ]
1/autotile/icon_coordinate = Vector2( 2, 0 )
1/autotile/tile_size = Vector2( 32, 32 )
1/autotile/spacing = 0
1/autotile/occluder_map = [  ]
1/autotile/navpoly_map = [  ]
1/autotile/priority_map = [  ]
1/autotile/z_index_map = [  ]
1/occluder_offset = Vector2( 0, 0 )
1/navigation_offset = Vector2( 0, 0 )
1/shape_offset = Vector2( 0, 0 )
1/shape_transform = Transform2D( 1, 0, 0, 1, 0, 0 )
1/shape_one_way = false
1/shape_one_way_margin = 0.0
1/shapes = [  ]
1/z_index = 0
2/name = "Decoration.png 2"
2/texture = ExtResource( 1 )
2/tex_offset = Vector2( 0, 0 )
2/modulate = Color( 1, 1, 1, 1 )
2/region = Rect2( 0, 96, 128, 128 )
2/tile_mode = 2
2/autotile/icon_coordinate = Vector2( 2, 0 )
2/autotile/tile_size = Vector2( 32, 32 )
2/autotile/spacing = 0
2/autotile/occluder_map = [  ]
2/autotile/navpoly_map = [  ]
2/autotile/priority_map = [  ]
2/autotile/z_index_map = [  ]
2/occluder_offset = Vector2( 0, 0 )
2/navigation_offset = Vector2( 0, 0 )
2/shape_offset = Vector2( 0, 0 )
2/shape_transform = Transform2D( 1, 0, 0, 1, 0, 0 )
2/shape_one_way = false
2/shape_one_way_margin = 0.0
2/shapes = [  ]
2/z_index = 0
3/name = "Decoration.png 3"
3/texture = ExtResource( 1 )
3/tex_offset = Vector2( 0, 0 )
3/modulate = Color( 1, 1, 1, 1 )
3/region = Rect2( 128, 96, 192, 96 )
3/tile_mode = 2
3/autotile/icon_coordinate = Vector2( 3, 0 )
3/autotile/tile_size = Vector2( 32, 32 )
3/autotile/spacing = 0
3/autotile/occluder_map = [  ]
3/autotile/navpoly_map = [  ]
3/autotile/priority_map = [  ]
3/autotile/z_index_map = [  ]
3/occluder_offset = Vector2( 0, 0 )
3/navigation_offset = Vector2( 0, 0 )
3/shape_offset = Vector2( 0, 0 )
3/shape_transform = Transform2D( 1, 0, 0, 1, 0, 0 )
3/shape_one_way = false
3/shape_one_way_margin = 0.0
3/shapes = [  ]
3/z_index = 0
4/name = "Decoration.png 4"
4/texture = ExtResource( 1 )
4/tex_offset = Vector2( 0, 0 )
4/modulate = Color( 1, 1, 1, 1 )
4/region = Rect2( 160, 0, 32, 64 )
4/tile_mode = 0
4/occluder_offset = Vector2( 0, 0 )
4/navigation_offset = Vector2( 0, 0 )
4/shape_offset = Vector2( 0, 0 )
4/shape_transform = Transform2D( 1, 0, 0, 1, 0, 0 )
4/shape_one_way = false
4/shape_one_way_margin = 0.0
4/shapes = [  ]
4/z_index = 0
5/name = "Decoration.png 5"
5/texture = ExtResource( 1 )
5/tex_offset = Vector2( 0, 0 )
5/modulate = Color( 1, 1, 1, 1 )
5/region = Rect2( 192, 0, 32, 64 )
5/tile_mode = 0
5/occluder_offset = Vector2( 0, 0 )
5/navigation_offset = Vector2( 0, 0 )
5/shape_offset = Vector2( 0, 0 )
5/shape_transform = Transform2D( 1, 0, 0, 1, 0, 0 )
5/shape_one_way = false
5/shape_one_way_margin = 0.0
5/shapes = [  ]
5/z_index = 0
6/name = "Decoration.png 6"
6/texture = ExtResource( 1 )
6/tex_offset = Vector2( 0, 0 )
6/modulate = Color( 1, 1, 1, 1 )
6/region = Rect2( 224, 0, 32, 64 )
6/tile_mode = 0
6/occluder_offset = Vector2( 0, 0 )
6/navigation_offset = Vector2( 0, 0 )
6/shape_offset = Vector2( 0, 0 )
6/shape_transform = Transform2D( 1, 0, 0, 1, 0, 0 )
6/shape_one_way = false
6/shape_one_way_margin = 0.0
6/shapes = [  ]
6/z_index = 0
7/name = "Decoration.png 7"
7/texture = ExtResource( 1 )
7/tex_offset = Vector2( 0, 0 )
7/modulate = Color( 1, 1, 1, 1 )
7/region = Rect2( 256, 0, 32, 64 )
7/tile_mode = 0
7/occluder_offset = Vector2( 0, 0 )
7/navigation_offset = Vector2( 0, 0 )
7/shape_offset = Vector2( 0, 0 )
7/shape_transform = Transform2D( 1, 0, 0, 1, 0, 0 )
7/shape_one_way = false
7/shape_one_way_margin = 0.0
7/shapes = [  ]
7/z_index = 0
8/name = "Decoration.png 8"
8/texture = ExtResource( 1 )
8/tex_offset = Vector2( 0, 0 )
8/modulate = Color( 1, 1, 1, 1 )
8/region = Rect2( 288, 0, 32, 64 )
8/tile_mode = 0
8/occluder_offset = Vector2( 0, 0 )
8/navigation_offset = Vector2( 0, 0 )
8/shape_offset = Vector2( 0, 0 )
8/shape_transform = Transform2D( 1, 0, 0, 1, 0, 0 )
8/shape_one_way = false
8/shape_one_way_margin = 0.0
8/shapes = [  ]
8/z_index = 0
9/name = "Decoration.png 9"
9/texture = ExtResource( 1 )
9/tex_offset = Vector2( 0, 0 )
9/modulate = Color( 1, 1, 1, 1 )
9/region = Rect2( 160, 64, 32, 32 )
9/tile_mode = 0
9/occluder_offset = Vector2( 0, 0 )
9/navigation_offset = Vector2( 0, 0 )
9/shape_offset = Vector2( 0, 0 )
9/shape_transform = Transform2D( 1, 0, 0, 1, 0, 0 )
9/shape_one_way = false
9/shape_one_way_margin = 0.0
9/shapes = [  ]
9/z_index = 0
10/name = "Decoration.png 10"
10/texture = ExtResource( 1 )
10/tex_offset = Vector2( 0, 0 )
10/modulate = Color( 1, 1, 1, 1 )
10/region = Rect2( 192, 64, 32, 32 )
10/tile_mode = 0
10/occluder_offset = Vector2( 0, 0 )
10/navigation_offset = Vector2( 0, 0 )
10/shape_offset = Vector2( 0, 0 )
10/shape_transform = Transform2D( 1, 0, 0, 1, 0, 0 )
10/shape_one_way = false
10/shape_one_way_margin = 0.0
10/shapes = [  ]
10/z_index = 0
11/name = "Decoration.png 11"
11/texture = ExtResource( 1 )
11/tex_offset = Vector2( 0, 0 )
11/modulate = Color( 1, 1, 1, 1 )
11/region = Rect2( 128, 192, 32, 32 )
11/tile_mode = 0
11/occluder_offset = Vector2( 0, 0 )
11/navigation_offset = Vector2( 0, 0 )
11/shape_offset = Vector2( 0, 0 )
11/shape_transform = Transform2D( 1, 0, 0, 1, 0, 0 )
11/shape_one_way = false
11/shape_one_way_margin = 0.0
11/shapes = [  ]
11/z_index = 0
12/name = "Decoration.png 12"
12/texture = ExtResource( 1 )
12/tex_offset = Vector2( 0, 0 )
12/modulate = Color( 1, 1, 1, 1 )
12/region = Rect2( 160, 192, 32, 32 )
12/tile_mode = 0
12/occluder_offset = Vector2( 0, 0 )
12/navigation_offset = Vector2( 0, 0 )
12/shape_offset = Vector2( 0, 0 )
12/shape_transform = Transform2D( 1, 0, 0, 1, 0, 0 )
12/shape_one_way = false
12/shape_one_way_margin = 0.0
12/shapes = [  ]
12/z_index = 0
13/name = "Decoration.png 13"
13/texture = ExtResource( 1 )
13/tex_offset = Vector2( 0, 0 )
13/modulate = Color( 1, 1, 1, 1 )
13/region = Rect2( 192, 192, 32, 32 )
13/tile_mode = 0
13/occluder_offset = Vector2( 0, 0 )
13/navigation_offset = Vector2( 0, 0 )
13/shape_offset = Vector2( 0, 0 )
13/shape_transform = Transform2D( 1, 0, 0, 1, 0, 0 )
13/shape_one_way = false
13/shape_one_way_margin = 0.0
13/shapes = [  ]
13/z_index = 0
14/name = "Decoration.png 14"
14/texture = ExtResource( 1 )
14/tex_offset = Vector2( 0, 0 )
14/modulate = Color( 1, 1, 1, 1 )
14/region = Rect2( 224, 192, 32, 32 )
14/tile_mode = 0
14/occluder_offset = Vector2( 0, 0 )
14/navigation_offset = Vector2( 0, 0 )
14/shape_offset = Vector2( 0, 0 )
14/shape_transform = Transform2D( 1, 0, 0, 1, 0, 0 )
14/shape_one_way = false
14/shape_one_way_margin = 0.0
14/shapes = [  ]
14/z_index = 0
15/name = "Decoration.png 15"
15/texture = ExtResource( 1 )
15/tex_offset = Vector2( 0, 0 )
15/modulate = Color( 1, 1, 1, 1 )
15/region = Rect2( 256, 192, 32, 32 )
15/tile_mode = 0
15/occluder_offset = Vector2( 0, 0 )
15/navigation_offset = Vector2( 0, 0 )
15/shape_offset = Vector2( 0, 0 )
15/shape_transform = Transform2D( 1, 0, 0, 1, 0, 0 )
15/shape_one_way = false
15/shape_one_way_margin = 0.0
15/shapes = [  ]
15/z_index = 0
16/name = "Decoration.png 16"
16/texture = ExtResource( 1 )
16/tex_offset = Vector2( 0, 0 )
16/modulate = Color( 1, 1, 1, 1 )
16/region = Rect2( 288, 192, 32, 32 )
16/tile_mode = 0
16/occluder_offset = Vector2( 0, 0 )
16/navigation_offset = Vector2( 0, 0 )
16/shape_offset = Vector2( 0, 0 )
16/shape_transform = Transform2D( 1, 0, 0, 1, 0, 0 )
16/shape_one_way = false
16/shape_one_way_margin = 0.0
16/shapes = [  ]
16/z_index = 0
17/name = "port.png 17"
17/texture = ExtResource( 3 )
17/tex_offset = Vector2( 0, 0 )
17/modulate = Color( 1, 1, 1, 1 )
17/region = Rect2( 0, 0, 64, 32 )
17/tile_mode = 0
17/occluder_offset = Vector2( 0, 0 )
17/navigation_offset = Vector2( 0, 0 )
17/shape_offset = Vector2( 0, 0 )
17/shape_transform = Transform2D( 1, 0, 0, 1, 0, 0 )
17/shape_one_way = false
17/shape_one_way_margin = 0.0
17/shapes = [  ]
17/z_index = 0
18/name = "port.png 18"
18/texture = ExtResource( 3 )
18/tex_offset = Vector2( 0, 0 )
18/modulate = Color( 1, 1, 1, 1 )
18/region = Rect2( 0, 32, 64, 32 )
18/tile_mode = 0
18/occluder_offset = Vector2( 0, 0 )
18/navigation_offset = Vector2( 0, 0 )
18/shape_offset = Vector2( 0, 0 )
18/shape_transform = Transform2D( 1, 0, 0, 1, 0, 0 )
18/shape_one_way = false
18/shape_one_way_margin = 0.0
18/shapes = [  ]
18/z_index = 0
19/name = "port.png 19"
19/texture = ExtResource( 3 )
19/tex_offset = Vector2( 0, 0 )
19/modulate = Color( 1, 1, 1, 1 )
19/region = Rect2( 64, 0, 32, 64 )
19/tile_mode = 0
19/occluder_offset = Vector2( 0, 0 )
19/navigation_offset = Vector2( 0, 0 )
19/shape_offset = Vector2( 0, 0 )
19/shape_transform = Transform2D( 1, 0, 0, 1, 0, 0 )
19/shape_one_way = false
19/shape_one_way_margin = 0.0
19/shapes = [  ]
19/z_index = 0
20/name = "port.png 20"
20/texture = ExtResource( 3 )
20/tex_offset = Vector2( 0, 0 )
20/modulate = Color( 1, 1, 1, 1 )
20/region = Rect2( 96, 0, 32, 64 )
20/tile_mode = 0
20/occluder_offset = Vector2( 0, 0 )
20/navigation_offset = Vector2( 0, 0 )
20/shape_offset = Vector2( 0, 0 )
20/shape_transform = Transform2D( 1, 0, 0, 1, 0, 0 )
20/shape_one_way = false
20/shape_one_way_margin = 0.0
20/shapes = [  ]
20/z_index = 0
