[gd_scene load_steps=4 format=2]

[ext_resource path="res://Wish/WishTransition/Transitions/Multi/Transition_Multi.gd" type="Script" id=2]
[ext_resource path="res://Wish/WishTransition/Transitions/Multi/Transition_Multi.tres" type="Material" id=3]

[sub_resource type="Animation" id=3]
resource_name = "noise_out"
tracks/0/type = "value"
tracks/0/path = NodePath(".:material:shader_param/progress")
tracks/0/interp = 1
tracks/0/loop_wrap = true
tracks/0/imported = false
tracks/0/enabled = true
tracks/0/keys = {
"times": PoolRealArray( 0, 1 ),
"transitions": PoolRealArray( 1, 1 ),
"update": 0,
"values": [ 0.0, 1.0 ]
}

[node name="Transition" type="CanvasLayer"]
pause_mode = 2
layer = 3
script = ExtResource( 2 )

[node name="Polygon" type="Polygon2D" parent="."]
pause_mode = 2
material = ExtResource( 3 )
z_index = 4096
z_as_relative = false
polygon = PoolVector2Array( 0, 0, 1, 0, 1, 1, 0, 1 )

[node name="AnimationPlayer" type="AnimationPlayer" parent="."]
root_node = NodePath("../Polygon")
anims/fade = SubResource( 3 )

[connection signal="animation_finished" from="AnimationPlayer" to="." method="_on_AnimationPlayer_animation_finished"]
