{
	"color": "#ffffffff",
	"description": "",
	"display_name": "",
	"display_name_bool": false,
	"id": "character-1642274838.json",
	"mirror_portraits": false,
	"name": "Oliver",
	"nickname": "",
	"nickname_bool": false,
	"offset_x": 0,
	"offset_y": 0,
	"portraits": [
		{
			"name": "Default",
			"path": "res://UI/Characters/Hero/Normal.png"
		},
		{
			"name": "Angry1",
			"path": "res://UI/Characters/Hero/Angry1.png"
		},
		{
			"name": "Angry2",
			"path": "res://UI/Characters/Hero/Angry2.png"
		},
		{
			"name": "Grin",
			"path": "res://UI/Characters/Hero/Grin.png"
		},
		{
			"name": "Laugh",
			"path": "res://UI/Characters/Hero/Laugh.png"
		},
		{
			"name": "Sad",
			"path": "res://UI/Characters/Hero/Sad.png"
		},
		{
			"name": "Smile1",
			"path": "res://UI/Characters/Hero/Smile1.png"
		},
		{
			"name": "Smile2",
			"path": "res://UI/Characters/Hero/Smile2.png"
		},
		{
			"name": "Smirk",
			"path": "res://UI/Characters/Hero/Smirk.png"
		},
		{
			"name": "Suprised",
			"path": "res://UI/Characters/Hero/Suprised.png"
		}
	],
	"scale": 50
}
