{
	"color": "#ff8080ff",
	"description": "",
	"display_name": "",
	"display_name_bool": false,
	"id": "character-1642874308.json",
	"mirror_portraits": false,
	"name": "Pirate",
	"nickname": "",
	"nickname_bool": false,
	"offset_x": 0,
	"offset_y": 0,
	"portraits": [
		{
			"name": "Default",
			"path": ""
		}
	],
	"scale": 100
}
