[gd_resource type="Resource" load_steps=4 format=2]

[ext_resource path="res://Level/SpawnPatterns/SpawnPattern.gd" type="Script" id=1]
[ext_resource path="res://Objects/Units/Ships/ShipNormal.tscn" type="PackedScene" id=2]
[ext_resource path="res://Objects/Units/Ships/ShipFast.tscn" type="PackedScene" id=3]

[resource]
script = ExtResource( 1 )
ships = [ ExtResource( 2 ), ExtResource( 2 ), ExtResource( 2 ), ExtResource( 3 ), ExtResource( 3 ) ]
wait_time = 2.5
dialog_at_win = "Tutorial3"
dialog_at_fail = "Fail"
tech_level_inc = true
add_money = 150
