[gd_scene load_steps=5 format=2]

[ext_resource path="res://Objects/Units/Ships/ShipTemplate.tscn" type="PackedScene" id=1]
[ext_resource path="res://Objects/Units/Ships/Parts/SailBig/Blue_Damage_0.png" type="Texture" id=2]
[ext_resource path="res://Objects/Units/Ships/Parts/Flag/Blue.png" type="Texture" id=3]
[ext_resource path="res://Objects/Units/Ships/Parts/SailSmall/Blue_Damage_0.png" type="Texture" id=4]

[node name="ShipFast" instance=ExtResource( 1 )]
type = "Blue"
gold = 30

[node name="SailWind" parent="Body" index="0"]
texture = ExtResource( 4 )

[node name="SailBig" parent="." index="2"]
texture = ExtResource( 2 )

[node name="Flag" parent="SailBig/Nest" index="0"]
texture = ExtResource( 3 )
