[gd_scene load_steps=6 format=2]

[ext_resource path="res://Objects/Units/Ships/ShipTemplate.tscn" type="PackedScene" id=1]
[ext_resource path="res://Objects/Units/Ships/Parts/Ship/Damage_2.png" type="Texture" id=2]
[ext_resource path="res://Objects/Units/Ships/Parts/SailBig/Red_Damage_2.png" type="Texture" id=3]
[ext_resource path="res://Objects/Units/Ships/Parts/Flag/Red.png" type="Texture" id=4]
[ext_resource path="res://Objects/Units/Ships/Parts/SailSmall/Red_Damage_2.png" type="Texture" id=5]

[node name="ShipStrong" instance=ExtResource( 1 )]
type = "Red"
speed = 32.0
gold = 30

[node name="Body" parent="." index="1"]
texture = ExtResource( 2 )

[node name="SailWind" parent="Body" index="0"]
texture = ExtResource( 5 )

[node name="SailBig" parent="." index="2"]
texture = ExtResource( 3 )

[node name="Flag" parent="SailBig/Nest" index="0"]
texture = ExtResource( 4 )
