[gd_resource type="DynamicFont" load_steps=2 format=2]

[ext_resource path="res://Fonts/PirataOne/PirataOne-Regular.ttf" type="DynamicFontData" id=1]

[resource]
size = 24
outline_size = 1
outline_color = Color( 0, 0, 0, 0.501961 )
font_data = ExtResource( 1 )
