{
	"events": [
		{
			"action": "join",
			"character": "character-1642265471.json",
			"event_id": "dialogic_002",
			"mirror": false,
			"portrait": "Default",
			"position": {
				"0": false,
				"1": false,
				"2": false,
				"3": false,
				"4": true
			}
		},
		{
			"action": "join",
			"character": "character-1642274838.json",
			"event_id": "dialogic_002",
			"mirror": false,
			"portrait": "Default",
			"position": {
				"0": true,
				"1": false,
				"2": false,
				"3": false,
				"4": false
			}
		},
		{
			"character": "character-1642265471.json",
			"event_id": "dialogic_001",
			"portrait": "(Don't change)",
			"text": "§_LEVEL1_1_1_LUCY"
		},
		{
			"character": "character-1642274838.json",
			"event_id": "dialogic_001",
			"portrait": "(Don't change)",
			"text": "§_LEVEL1_1_2_OLIVER"
		},
		{
			"character": "character-1642265471.json",
			"event_id": "dialogic_001",
			"portrait": "Smile",
			"text": "§_LEVEL1_1_3_LUCY"
		},
		{
			"character": "character-1642265471.json",
			"event_id": "dialogic_001",
			"portrait": "Shocked",
			"text": "§_LEVEL1_1_4_LUCY"
		},
		{
			"character": "character-1642274838.json",
			"event_id": "dialogic_001",
			"portrait": "Suprised",
			"text": "§_LEVEL1_1_5_OLIVER"
		},
		{
			"character": "character-1642265471.json",
			"event_id": "dialogic_001",
			"portrait": "Laugh",
			"text": "§_LEVEL1_1_6_LUCY"
		},
		{
			"character": "character-1642274838.json",
			"event_id": "dialogic_001",
			"portrait": "Angry1",
			"text": "§_LEVEL1_1_7_OLIVER"
		},
		{
			"character": "character-1642274838.json",
			"event_id": "dialogic_001",
			"portrait": "Suprised",
			"text": "§_LEVEL1_1_8_OLIVER"
		},
		{
			"character": "character-1642265471.json",
			"event_id": "dialogic_001",
			"portrait": "Annoyed",
			"text": "§_LEVEL1_1_9_LUCY"
		},
		{
			"character": "character-1642274838.json",
			"event_id": "dialogic_001",
			"portrait": "Angry2",
			"text": "§_LEVEL1_1_10_OLIVER"
		}
	],
	"metadata": {
		"dialogic-version": "1.3",
		"file": "timeline-1642936719.json",
		"name": "Level1_1"
	}
}
