{
	"events": [
		{
			"action": "join",
			"character": "character-1642265471.json",
			"event_id": "dialogic_002",
			"mirror": false,
			"portrait": "Angry",
			"position": {
				"0": false,
				"1": false,
				"2": false,
				"3": false,
				"4": true
			}
		},
		{
			"character": "character-1642265471.json",
			"event_id": "dialogic_001",
			"portrait": "",
			"text": "B"
		}
	],
	"metadata": {
		"dialogic-version": "1.3",
		"file": "timeline-1642844035.json",
		"name": "TestB"
	}
}
