{
	"events": [
		{
			"character": "",
			"event_id": "dialogic_001",
			"portrait": "",
			"text": "Intro"
		}
	],
	"metadata": {
		"dialogic-version": "1.3",
		"file": "timeline-1642885327.json",
		"name": "TestC"
	}
}
