[gd_scene load_steps=3 format=2]

[ext_resource path="res://Objects/Fishing/Fish/fishTile_093.png" type="Texture" id=1]
[ext_resource path="res://Objects/Fishing/Fish/FishTemplate.gd" type="Script" id=2]

[node name="Fish" type="Sprite"]
rotation = -1.5708
scale = Vector2( 0.25, 0.25 )
texture = ExtResource( 1 )
offset = Vector2( -40, 0 )
script = ExtResource( 2 )
