[gd_scene load_steps=6 format=2]

[ext_resource path="res://Fonts/PirataOne/PirataOne_64.tres" type="DynamicFont" id=1]
[ext_resource path="res://Fonts/PirataOne/PirataOne_32.tres" type="DynamicFont" id=2]
[ext_resource path="res://Fonts/PirataOne/PirataOne_24.tres" type="DynamicFont" id=3]
[ext_resource path="res://Menu/Credits.gd" type="Script" id=4]
[ext_resource path="res://Menu/WaterBackground.tscn" type="PackedScene" id=5]

[node name="Credits" type="Control"]
anchor_right = 1.0
anchor_bottom = 1.0
script = ExtResource( 4 )
__meta__ = {
"_edit_use_anchors_": false
}

[node name="WaterBackground" parent="." instance=ExtResource( 5 )]

[node name="Text" type="RichTextLabel" parent="."]
anchor_right = 1.0
anchor_bottom = 1.0
margin_left = 20.0
margin_top = 20.0
margin_right = -20.0
margin_bottom = -20.0
custom_fonts/italics_font = ExtResource( 1 )
custom_fonts/bold_font = ExtResource( 2 )
custom_fonts/normal_font = ExtResource( 3 )
bbcode_enabled = true
bbcode_text = "[center][i]Naval Defense[/i]
a game by Benedikt Wicklein (whiteshampoo)
for the [url=https://itch.io/jam/godot-wild-jam-41]Godot Wild Jam 41[/url]

[b]Credits[/b]

[b]Idea, Programming, etc[/b]
Benedikt Wicklein

[b]Soundeffects and Translation[/b]
Benedikt Wicklein
Tatarantula

[b]Graphics[/b]
[url=https://kenney.nl]A lot[/url] - Kenney Vleugels
[url=https://kenney.nl/assets/ui-pack-rpg-expansion]UI Pack RPG[/url] - Kenney Vleugels
[url=https://sutemo.itch.io/female-character]Female Charakter[/url] - Sutemo
[url=https://sutemo.itch.io/male-character-sprite-for-visual-novel]Male Charakter[/url] - Sutemo

[b]Music[/b]
Bagpipes - Darry2Vance
Heartland - ebunny
Fantasy Adventure - Russsound
Ocean Depths - Syrgi Romeo
The Entrance To The Lagoon - Syrgi Romeo

[b]Fonts[/b]
[url=https://fonts.google.com/specimen/Oswald]Oswald[/url] - Vernon Adams, Kalapi Gajjar, Cyreal
[url=https://www.dafont.com/de/pirata-one.font]PirataOne[/url] - Rodrigo Fuenzalida

[b]Game Engine[/b]
[url=https://godotengine.org]Godot[/url]

[b]Addons[/b]
[url=https://dialogic.coppolaemilio.com/]Dialogic[/url] - Emilio Coppola

[b]Tools[/b]
[url=https://www.gimp.org/]Gimp[/url]
[url=https://www.audacityteam.org/]Audacity[/url]
[url=https://notepad-plus-plus.org/]Notepad++[/url]
[url=https://www.7-zip.org/]7zip[/url]
[url=https://www.irfanview.com/]IrfanView[/url]

[b]Special Thanks[/b]
German Godot Discord
[/center]"
text = "Naval Defense
a game by Benedikt Wicklein (whiteshampoo)
for the Godot Wild Jam 41

Credits

Idea, Programming, etc
Benedikt Wicklein

Soundeffects and Translation
Benedikt Wicklein
Tatarantula

Graphics
A lot - Kenney Vleugels
UI Pack RPG - Kenney Vleugels
Female Charakter - Sutemo
Male Charakter - Sutemo

Music
Bagpipes - Darry2Vance
Heartland - ebunny
Fantasy Adventure - Russsound
Ocean Depths - Syrgi Romeo
The Entrance To The Lagoon - Syrgi Romeo

Fonts
Oswald - Vernon Adams, Kalapi Gajjar, Cyreal
PirataOne - Rodrigo Fuenzalida

Game Engine
Godot

Addons
Dialogic - Emilio Coppola

Tools
Gimp
Audacity
Notepad++
7zip
IrfanView

Special Thanks
German Godot Discord
"
__meta__ = {
"_edit_use_anchors_": false
}

[node name="Exit" type="Button" parent="."]
margin_right = 60.0
margin_bottom = 20.0
text = "§_BACK"
__meta__ = {
"_edit_use_anchors_": false
}

[connection signal="meta_clicked" from="Text" to="." method="_on_Text_meta_clicked"]
[connection signal="pressed" from="Exit" to="." method="_on_Exit_pressed"]
