[gd_resource type="TileSet" load_steps=5 format=2]

[ext_resource path="res://Objects/Tilesets/Pirate/PirateSandSmall.png" type="Texture" id=1]
[ext_resource path="res://Objects/Tilesets/Pirate/PirateSmall.png" type="Texture" id=2]
[ext_resource path="res://Objects/Tilesets/Pirate/WallSmall.png" type="Texture" id=3]

[sub_resource type="NavigationPolygon" id=1]
vertices = PoolVector2Array( 32, 32, 0, 32, 0, 0, 32, 0 )
polygons = [ PoolIntArray( 0, 1, 2, 3 ) ]

[resource]
0/name = "Sand"
0/texture = ExtResource( 1 )
0/tex_offset = Vector2( 0, 0 )
0/modulate = Color( 1, 1, 1, 1 )
0/region = Rect2( 0, 0, 256, 192 )
0/tile_mode = 1
0/autotile/bitmask_mode = 1
0/autotile/bitmask_flags = [ Vector2( 0, 0 ), 176, Vector2( 0, 1 ), 50, Vector2( 0, 2 ), 255, Vector2( 0, 3 ), 507, Vector2( 0, 4 ), 442, Vector2( 0, 5 ), 190, Vector2( 1, 0 ), 152, Vector2( 1, 1 ), 26, Vector2( 1, 2 ), 447, Vector2( 1, 3 ), 510, Vector2( 1, 4 ), 250, Vector2( 1, 5 ), 187, Vector2( 2, 0 ), 184, Vector2( 2, 1 ), 178, Vector2( 2, 2 ), 191, Vector2( 2, 3 ), 251, Vector2( 2, 4 ), 434, Vector2( 2, 5 ), 182, Vector2( 3, 0 ), 58, Vector2( 3, 1 ), 154, Vector2( 3, 2 ), 506, Vector2( 3, 3 ), 446, Vector2( 3, 4 ), 218, Vector2( 3, 5 ), 155, Vector2( 4, 0 ), 24, Vector2( 4, 1 ), 144, Vector2( 4, 2 ), 438, Vector2( 4, 3 ), 504, Vector2( 4, 4 ), 440, Vector2( 4, 5 ), 62, Vector2( 5, 0 ), 18, Vector2( 5, 1 ), 48, Vector2( 5, 2 ), 219, Vector2( 5, 3 ), 63, Vector2( 5, 4 ), 248, Vector2( 5, 5 ), 59, Vector2( 6, 0 ), 432, Vector2( 6, 1 ), 54, Vector2( 6, 2 ), 511, Vector2( 6, 3 ), 16, Vector2( 6, 4 ), 443, Vector2( 6, 5 ), 254, Vector2( 7, 0 ), 216, Vector2( 7, 1 ), 27, Vector2( 7, 2 ), 56, Vector2( 7, 3 ), 146, Vector2( 7, 4 ), 186 ]
0/autotile/icon_coordinate = Vector2( 6, 3 )
0/autotile/tile_size = Vector2( 32, 32 )
0/autotile/spacing = 0
0/autotile/occluder_map = [  ]
0/autotile/navpoly_map = [  ]
0/autotile/priority_map = [  ]
0/autotile/z_index_map = [  ]
0/occluder_offset = Vector2( 0, 0 )
0/navigation_offset = Vector2( 0, 0 )
0/shape_offset = Vector2( 0, 0 )
0/shape_transform = Transform2D( 1, 0, 0, 1, 0, 0 )
0/shape_one_way = false
0/shape_one_way_margin = 0.0
0/shapes = [  ]
0/z_index = 0
1/name = "Water"
1/texture = ExtResource( 2 )
1/tex_offset = Vector2( 0, 0 )
1/modulate = Color( 1, 1, 1, 1 )
1/region = Rect2( 256, 128, 32, 32 )
1/tile_mode = 0
1/occluder_offset = Vector2( 0, 0 )
1/navigation_offset = Vector2( 0, 0 )
1/shape_offset = Vector2( 0, 0 )
1/shape_transform = Transform2D( 1, 0, 0, 1, 0, 0 )
1/shape_one_way = false
1/shape_one_way_margin = 0.0
1/shapes = [  ]
1/z_index = 0
2/name = "Navi"
2/texture = ExtResource( 2 )
2/tex_offset = Vector2( 0, 0 )
2/modulate = Color( 1, 1, 1, 0 )
2/region = Rect2( 192, 128, 32, 32 )
2/tile_mode = 0
2/occluder_offset = Vector2( 0, 0 )
2/navigation_offset = Vector2( 0, 0 )
2/navigation = SubResource( 1 )
2/shape_offset = Vector2( 0, 0 )
2/shape_transform = Transform2D( 1, 0, 0, 1, 0, 0 )
2/shape_one_way = false
2/shape_one_way_margin = 0.0
2/shapes = [  ]
2/z_index = -999
3/name = "WallSmall.png 3"
3/texture = ExtResource( 3 )
3/tex_offset = Vector2( 0, 0 )
3/modulate = Color( 1, 1, 1, 1 )
3/region = Rect2( 0, 0, 128, 128 )
3/tile_mode = 1
3/autotile/bitmask_mode = 1
3/autotile/bitmask_flags = [ Vector2( 0, 0 ), 176, Vector2( 0, 1 ), 146, Vector2( 0, 2 ), 178, Vector2( 0, 3 ), 50, Vector2( 1, 0 ), 56, Vector2( 1, 1 ), 16, Vector2( 1, 2 ), 24, Vector2( 1, 3 ), 48, Vector2( 2, 0 ), 184, Vector2( 2, 1 ), 18, Vector2( 2, 2 ), 186, Vector2( 2, 3 ), 58, Vector2( 3, 0 ), 152, Vector2( 3, 1 ), 144, Vector2( 3, 2 ), 154, Vector2( 3, 3 ), 26 ]
3/autotile/icon_coordinate = Vector2( 1, 1 )
3/autotile/tile_size = Vector2( 32, 32 )
3/autotile/spacing = 0
3/autotile/occluder_map = [  ]
3/autotile/navpoly_map = [  ]
3/autotile/priority_map = [  ]
3/autotile/z_index_map = [  ]
3/occluder_offset = Vector2( 0, 0 )
3/navigation_offset = Vector2( 0, 0 )
3/shape_offset = Vector2( 0, 0 )
3/shape_transform = Transform2D( 1, 0, 0, 1, 0, 0 )
3/shape_one_way = false
3/shape_one_way_margin = 0.0
3/shapes = [  ]
3/z_index = 0
4/name = "PirateSmall.png 4"
4/texture = ExtResource( 2 )
4/tex_offset = Vector2( 0, 0 )
4/modulate = Color( 1, 1, 1, 1 )
4/region = Rect2( 0, 96, 96, 64 )
4/tile_mode = 1
4/autotile/bitmask_mode = 0
4/autotile/bitmask_flags = [ Vector2( 0, 0 ), 325, Vector2( 0, 1 ), 325, Vector2( 1, 0 ), 325, Vector2( 1, 1 ), 325, Vector2( 2, 0 ), 325, Vector2( 2, 1 ), 325 ]
4/autotile/icon_coordinate = Vector2( 0, 0 )
4/autotile/tile_size = Vector2( 32, 32 )
4/autotile/spacing = 0
4/autotile/occluder_map = [  ]
4/autotile/navpoly_map = [  ]
4/autotile/priority_map = [  ]
4/autotile/z_index_map = [  ]
4/occluder_offset = Vector2( 0, 0 )
4/navigation_offset = Vector2( 0, 0 )
4/shape_offset = Vector2( 0, 0 )
4/shape_transform = Transform2D( 1, 0, 0, 1, 0, 0 )
4/shape_one_way = false
4/shape_one_way_margin = 0.0
4/shapes = [  ]
4/z_index = 0
